<?xml version="1.0" standalone="no"?>
<!DOCTYPE svg PUBLIC "-//W3C//DTD SVG 20010904//EN"
 "http://www.w3.org/TR/2001/REC-SVG-20010904/DTD/svg10.dtd">
<svg version="1.0" xmlns="http://www.w3.org/2000/svg"
 width="400.000000pt" height="400.000000pt" viewBox="0 0 400.000000 400.000000"
 preserveAspectRatio="xMidYMid meet">
<metadata>
Created by potrace 1.11, written by Peter Selinger 2001-2013
</metadata>
<g transform="translate(0.000000,400.000000) scale(0.100000,-0.100000)"
fill="#000000" stroke="none">
<path d="M1380 3499 c-201 -74 -222 -82 -382 -140 l-147 -53 0 -988 c0 -543
-2 -1059 -5 -1145 -3 -87 -8 -234 -11 -328 -3 -93 -10 -243 -16 -333 -6 -90
-9 -165 -7 -167 2 -3 22 8 44 24 35 25 269 106 538 187 101 30 108 30 135 -6
33 -46 92 -78 166 -91 89 -15 163 -4 240 35 54 29 62 31 57 14 -2 -10 -8 -21
-13 -24 -5 -3 -9 -12 -9 -20 0 -11 8 -14 33 -10 49 8 217 16 364 17 83 0 137
5 146 12 8 7 64 161 123 342 59 182 110 333 113 337 5 6 155 -18 256 -42 105
-24 88 -40 145 136 27 85 50 161 50 168 0 12 -153 41 -275 53 -27 3 -53 8 -57
12 -4 3 6 45 22 91 96 271 91 260 114 255 44 -10 325 -55 343 -55 15 0 33 35
91 176 40 97 72 177 70 179 -3 3 -187 24 -553 64 l-150 16 -3 66 -3 66 -102
-19 c-139 -26 -569 -95 -640 -104 -47 -5 -58 -10 -62 -28 -15 -72 -66 -359
-63 -361 2 -1 64 8 138 21 167 28 170 28 170 7 0 -29 -55 -135 -93 -178 -50
-58 -130 -99 -192 -100 -69 0 -107 28 -136 103 -46 119 -21 411 56 666 69 229
177 438 276 539 47 47 63 57 91 57 62 0 97 -41 129 -155 10 -39 21 -59 30 -58
74 10 447 88 456 95 25 20 -13 234 -57 325 -93 190 -301 284 -536 242 -253
-44 -498 -200 -671 -426 l-58 -76 -3 327 c-1 179 -6 326 -10 325 -4 0 -68 -23
-142 -50z m1 -884 c-105 -254 -134 -410 -134 -715 0 -175 3 -221 22 -310 26
-124 68 -228 121 -304 l39 -55 1 -263 c1 -145 2 -272 1 -283 -1 -16 -15 -24
-64 -38 -63 -19 -422 -135 -445 -144 -7 -3 -10 1 -8 9 18 56 31 806 31 1785
l0 942 45 16 c25 9 68 25 95 35 28 10 95 35 150 55 55 20 120 44 145 54 l45
17 3 -340 2 -341 -49 -120z m1119 684 c56 -14 141 -70 176 -116 42 -55 74
-141 81 -219 l6 -62 -54 -11 c-30 -6 -98 -20 -152 -30 l-98 -18 -25 56 c-30
68 -66 107 -119 132 -53 24 -80 24 -140 -5 -132 -62 -268 -281 -375 -606 -69
-208 -93 -340 -94 -530 -1 -177 13 -241 67 -312 46 -60 97 -83 182 -83 94 0
182 42 255 122 82 89 121 179 135 311 l7 62 -27 0 c-15 0 -82 -9 -148 -20 -66
-12 -122 -18 -125 -16 -7 7 17 145 29 167 6 12 29 19 76 24 37 3 148 20 247
36 98 17 181 28 184 25 3 -3 -57 -192 -132 -419 -128 -386 -139 -416 -174
-450 -57 -55 -197 -135 -289 -164 -71 -22 -97 -25 -180 -21 -84 3 -108 8 -163
34 -153 72 -250 233 -295 489 -26 150 -14 404 30 629 57 292 229 595 443 781
209 181 472 265 672 214z m275 -1160 c50 -5 128 -14 175 -19 47 -5 143 -16
213 -25 175 -21 189 -23 214 -24 21 -1 20 -4 -20 -101 -27 -66 -46 -100 -57
-100 -8 0 -94 14 -190 30 -96 16 -177 26 -181 22 -7 -7 -15 -30 -100 -282 -27
-80 -54 -153 -59 -162 -23 -40 -13 -56 38 -63 93 -12 285 -44 289 -49 3 -2 -8
-43 -23 -90 -24 -75 -31 -85 -48 -81 -12 2 -73 16 -136 29 -63 14 -133 26
-155 28 l-40 3 -116 -349 c-63 -193 -120 -351 -125 -352 -19 -5 -354 -11 -354
-6 0 4 102 267 130 337 5 11 25 65 45 120 20 55 45 123 55 150 43 118 74 209
185 545 65 195 121 364 125 375 5 11 11 32 14 48 7 31 1 30 121 16z m-524
-971 c-5 -13 -32 -86 -60 -163 -86 -230 -96 -255 -101 -255 -3 0 -11 19 -17
43 -30 111 -148 191 -299 204 -77 7 -146 -15 -203 -63 l-41 -36 0 121 c0 67 2
121 4 121 3 0 20 -9 39 -20 71 -42 148 -62 247 -63 122 -1 213 21 333 83 109
56 109 56 98 28z m-394 -268 c100 -35 148 -99 141 -186 -9 -109 -93 -177 -221
-181 -101 -2 -177 30 -199 86 -50 123 -6 247 102 290 41 16 117 12 177 -9z"/>
</g>
</svg>
